<?xml version="1.0" encoding="UTF-8"?>
<svg width="24px" height="24px" viewBox="0 0 24 24" version="1.1" xmlns="http://www.w3.org/2000/svg" xmlns:xlink="http://www.w3.org/1999/xlink">
    <!-- Generator: Sketch 57.1 (83088) - https://sketch.com -->
    <title>01 Icons/24px/04-favorites</title>
    <desc>Created with Sketch.</desc>
    <g id="01-Icons/24px/04-favorites" stroke="none" stroke-width="1" fill="none" fill-rule="evenodd">
        <path d="M16.1040532,3.36537007 L16.1009111,3.36537027 C14.6766177,3.35906623 13.300937,3.85970718 12.2396057,4.76976145 L12.0115486,4.96531233 L11.7836874,4.76953337 C9.48660275,2.7958726 5.98153698,2.89142775 3.80481731,4.98671261 C1.73611102,6.97576262 1.95366646,10.7360634 3.9498611,13.6113538 C5.38033139,15.6717829 8.46195252,18.2381761 11.5528224,20.4016954 C11.8215689,20.5924173 12.1912625,20.5924173 12.4603915,20.4014243 C15.6338648,18.155684 18.6549966,15.6380188 20.0630331,13.6112635 C22.0391444,10.7668101 22.2622567,6.97067459 20.2081259,4.98681999 C19.1210976,3.94257395 17.6433986,3.35836359 16.1040532,3.36537007 Z" id="Shape" stroke="#605E5E" stroke-width="0.7"></path>
    </g>
</svg>